x-axis,1
second,Volt
-8.600000000000e-003, 2.70901e-001
-8.591200000000e-003, 2.70901e-001
-8.582400000000e-003, 2.70901e-001
-8.573600000000e-003, 2.70901e-001
-8.564800000000e-003, 2.70901e-001
-8.556000000000e-003, 2.70901e-001
-8.547200000000e-003, 2.70901e-001
-8.538400000000e-003, 2.70901e-001
-8.529600000000e-003, 2.70901e-001
-8.520800000000e-003, 2.70901e-001
-8.512000000000e-003, 2.70901e-001
-8.503200000000e-003, 2.70901e-001
-8.494400000000e-003, 2.70901e-001
-8.485600000000e-003, 2.70901e-001
-8.476800000000e-003, 2.70901e-001
-8.468000000000e-003, 2.70901e-001
-8.459200000000e-003, 2.70901e-001
-8.450400000000e-003, 2.70901e-001
-8.441600000000e-003, 2.70901e-001
-8.432800000000e-003, 2.70901e-001
-8.424000000000e-003, 2.70901e-001
-8.415200000000e-003, 2.70901e-001
-8.406400000000e-003, 2.70901e-001
-8.397600000000e-003, 2.70901e-001
-8.388800000000e-003, 2.70901e-001
-8.380000000000e-003, 2.70901e-001
-8.371200000000e-003, 2.70901e-001
-8.362400000000e-003, 2.70901e-001
-8.353600000000e-003, 2.70901e-001
-8.344800000000e-003, 2.70901e-001
-8.336000000000e-003, 2.70901e-001
-8.327200000000e-003, 2.70901e-001
-8.318400000000e-003, 2.70901e-001
-8.309600000000e-003, 2.70901e-001
-8.300800000000e-003, 2.70901e-001
-8.292000000000e-003, 2.70901e-001
-8.283200000000e-003, 2.70901e-001
-8.274400000000e-003, 2.70901e-001
-8.265600000000e-003, 2.70901e-001
-8.256800000000e-003, 2.70901e-001
-8.248000000000e-003, 2.70901e-001
-8.239200000000e-003, 2.70901e-001
-8.230400000000e-003, 2.70901e-001
-8.221600000000e-003, 2.70901e-001
-8.212800000000e-003, 2.70901e-001
-8.204000000000e-003, 2.70901e-001
-8.195200000000e-003, 2.70901e-001
-8.186400000000e-003, 2.70901e-001
-8.177600000000e-003, 2.70901e-001
-8.168800000000e-003, 2.70901e-001
-8.160000000000e-003, 2.70901e-001
-8.151200000000e-003, 2.70901e-001
-8.142400000000e-003, 2.70901e-001
-8.133600000000e-003, 2.70901e-001
-8.124800000000e-003, 2.70901e-001
-8.116000000000e-003, 2.70901e-001
-8.107200000000e-003, 2.70901e-001
-8.098400000000e-003, 2.70901e-001
-8.089600000000e-003, 2.70901e-001
-8.080800000000e-003, 2.70901e-001
-8.072000000000e-003, 2.70901e-001
-8.063200000000e-003, 2.70901e-001
-8.054400000000e-003, 2.70901e-001
-8.045600000000e-003, 2.70901e-001
-8.036800000000e-003, 2.70901e-001
-8.028000000000e-003, 2.70901e-001
-8.019200000000e-003, 2.70901e-001
-8.010400000000e-003, 2.70901e-001
-8.001600000000e-003, 2.70901e-001
-7.992800000000e-003, 2.70901e-001
-7.984000000000e-003, 2.70901e-001
-7.975200000000e-003, 2.70901e-001
-7.966400000000e-003, 2.70901e-001
-7.957600000000e-003, 2.70901e-001
-7.948800000000e-003, 2.70901e-001
-7.940000000000e-003, 2.70901e-001
-7.931200000000e-003, 2.70901e-001
-7.922400000000e-003, 2.70901e-001
-7.913600000000e-003, 2.70901e-001
-7.904800000000e-003, 2.70901e-001
-7.896000000000e-003, 2.70901e-001
-7.887200000000e-003, 2.70901e-001
-7.878400000000e-003, 2.70901e-001
-7.869600000000e-003, 2.70901e-001
-7.860800000000e-003, 2.70901e-001
-7.852000000000e-003, 2.70901e-001
-7.843200000000e-003, 2.70901e-001
-7.834400000000e-003, 2.70901e-001
-7.825600000000e-003, 2.70901e-001
-7.816800000000e-003, 2.70901e-001
-7.808000000000e-003, 2.70901e-001
-7.799200000000e-003, 2.70901e-001
-7.790400000000e-003, 2.70901e-001
-7.781600000000e-003, 2.70901e-001
-7.772800000000e-003, 2.70901e-001
-7.764000000000e-003, 2.70901e-001
-7.755200000000e-003, 2.70901e-001
-7.746400000000e-003, 2.70901e-001
-7.737600000000e-003, 2.70901e-001
-7.728800000000e-003, 2.70901e-001
-7.720000000000e-003, 2.70901e-001
-7.711200000000e-003, 2.70901e-001
-7.702400000000e-003, 2.70901e-001
-7.693600000000e-003, 2.70901e-001
-7.684800000000e-003, 2.70901e-001
-7.676000000000e-003, 2.70901e-001
-7.667200000000e-003, 2.70901e-001
-7.658400000000e-003, 2.70901e-001
-7.649600000000e-003, 2.70901e-001
-7.640800000000e-003, 2.70901e-001
-7.632000000000e-003, 2.70901e-001
-7.623200000000e-003, 2.70901e-001
-7.614400000000e-003, 2.70901e-001
-7.605600000000e-003, 2.70901e-001
-7.596800000000e-003, 2.70901e-001
-7.588000000000e-003, 2.70901e-001
-7.579200000000e-003, 2.70901e-001
-7.570400000000e-003, 2.70901e-001
-7.561600000000e-003, 2.70901e-001
-7.552800000000e-003, 2.70901e-001
-7.544000000000e-003, 2.70901e-001
-7.535200000000e-003, 2.70901e-001
-7.526400000000e-003, 2.70901e-001
-7.517600000000e-003, 2.70901e-001
-7.508800000000e-003, 2.70901e-001
-7.500000000000e-003, 2.70901e-001
-7.491200000000e-003, 2.70901e-001
-7.482400000000e-003, 2.70901e-001
-7.473600000000e-003, 2.70901e-001
-7.464800000000e-003, 2.70901e-001
-7.456000000000e-003, 2.70901e-001
-7.447200000000e-003, 2.70901e-001
-7.438400000000e-003, 2.70901e-001
-7.429600000000e-003, 2.70901e-001
-7.420800000000e-003, 2.70901e-001
-7.412000000000e-003, 2.70901e-001
-7.403200000000e-003, 2.70901e-001
-7.394400000000e-003, 2.70901e-001
-7.385600000000e-003, 2.70901e-001
-7.376800000000e-003, 2.70901e-001
-7.368000000000e-003, 2.70901e-001
-7.359200000000e-003, 2.70901e-001
-7.350400000000e-003, 2.70901e-001
-7.341600000000e-003, 2.70901e-001
-7.332800000000e-003, 2.70901e-001
-7.324000000000e-003, 2.70901e-001
-7.315200000000e-003, 2.70901e-001
-7.306400000000e-003, 2.70901e-001
-7.297600000000e-003, 2.70901e-001
-7.288800000000e-003, 2.70901e-001
-7.280000000000e-003, 2.70901e-001
-7.271200000000e-003, 2.70901e-001
-7.262400000000e-003, 2.70901e-001
-7.253600000000e-003, 2.70901e-001
-7.244800000000e-003, 2.70901e-001
-7.236000000000e-003, 2.70901e-001
-7.227200000000e-003, 2.70901e-001
-7.218400000000e-003, 2.70901e-001
-7.209600000000e-003, 2.70901e-001
-7.200800000000e-003, 2.70901e-001
-7.192000000000e-003, 2.70901e-001
-7.183200000000e-003, 2.70901e-001
-7.174400000000e-003, 2.70901e-001
-7.165600000000e-003, 2.70901e-001
-7.156800000000e-003, 2.70901e-001
-7.148000000000e-003, 2.70901e-001
-7.139200000000e-003, 2.70901e-001
-7.130400000000e-003, 2.70901e-001
-7.121600000000e-003, 2.70901e-001
-7.112800000000e-003, 2.70901e-001
-7.104000000000e-003, 2.70901e-001
-7.095200000000e-003, 2.70901e-001
-7.086400000000e-003, 2.70901e-001
-7.077600000000e-003, 2.70901e-001
-7.068800000000e-003, 2.70901e-001
-7.060000000000e-003, 2.70901e-001
-7.051200000000e-003, 2.70901e-001
-7.042400000000e-003, 2.70901e-001
-7.033600000000e-003, 2.70901e-001
-7.024800000000e-003, 2.70901e-001
-7.016000000000e-003, 2.70901e-001
-7.007200000000e-003, 2.70901e-001
-6.998400000000e-003, 2.70901e-001
-6.989600000000e-003, 2.70901e-001
-6.980800000000e-003, 2.70901e-001
-6.972000000000e-003, 2.70901e-001
-6.963200000000e-003, 2.70901e-001
-6.954400000000e-003, 2.70901e-001
-6.945600000000e-003, 2.70901e-001
-6.936800000000e-003, 2.70901e-001
-6.928000000000e-003, 2.70901e-001
-6.919200000000e-003, 2.70901e-001
-6.910400000000e-003, 2.70901e-001
-6.901600000000e-003, 2.70901e-001
-6.892800000000e-003, 2.70901e-001
-6.884000000000e-003, 2.70901e-001
-6.875200000000e-003, 2.70901e-001
-6.866400000000e-003, 2.70901e-001
-6.857600000000e-003, 2.70901e-001
-6.848800000000e-003, 2.70901e-001
-6.840000000000e-003, 2.70901e-001
-6.831200000000e-003, 2.70901e-001
-6.822400000000e-003, 2.70901e-001
-6.813600000000e-003, 2.70901e-001
-6.804800000000e-003, 2.70901e-001
-6.796000000000e-003, 2.70901e-001
-6.787200000000e-003, 2.70901e-001
-6.778400000000e-003, 2.70901e-001
-6.769600000000e-003, 2.70901e-001
-6.760800000000e-003, 2.70901e-001
-6.752000000000e-003, 2.70901e-001
-6.743200000000e-003, 2.70901e-001
-6.734400000000e-003, 2.70901e-001
-6.725600000000e-003, 2.70901e-001
-6.716800000000e-003, 2.70901e-001
-6.708000000000e-003, 2.70901e-001
-6.699200000000e-003, 2.70901e-001
-6.690400000000e-003, 2.70901e-001
-6.681600000000e-003, 2.70901e-001
-6.672800000000e-003, 2.70901e-001
-6.664000000000e-003, 2.70901e-001
-6.655200000000e-003, 2.70901e-001
-6.646400000000e-003, 2.70901e-001
-6.637600000000e-003, 2.70901e-001
-6.628800000000e-003, 2.70901e-001
-6.620000000000e-003, 2.70901e-001
-6.611200000000e-003, 2.70901e-001
-6.602400000000e-003, 2.70901e-001
-6.593600000000e-003, 2.70901e-001
-6.584800000000e-003, 2.70901e-001
-6.576000000000e-003, 2.70901e-001
-6.567200000000e-003, 2.70901e-001
-6.558400000000e-003, 2.70901e-001
-6.549600000000e-003, 2.70901e-001
-6.540800000000e-003, 2.70901e-001
-6.532000000000e-003, 2.70901e-001
-6.523200000000e-003, 2.70901e-001
-6.514400000000e-003, 2.70901e-001
-6.505600000000e-003, 2.70901e-001
-6.496800000000e-003, 2.70901e-001
-6.488000000000e-003, 2.70901e-001
-6.479200000000e-003, 2.70901e-001
-6.470400000000e-003, 2.70901e-001
-6.461600000000e-003, 2.70901e-001
-6.452800000000e-003, 2.70901e-001
-6.444000000000e-003, 2.70901e-001
-6.435200000000e-003, 2.70901e-001
-6.426400000000e-003, 2.70901e-001
-6.417600000000e-003, 2.70901e-001
-6.408800000000e-003, 2.70901e-001
-6.400000000000e-003, 2.70901e-001
-6.391200000000e-003, 2.70901e-001
-6.382400000000e-003, 2.70901e-001
-6.373600000000e-003, 2.70901e-001
-6.364800000000e-003, 2.70901e-001
-6.356000000000e-003, 2.70901e-001
-6.347200000000e-003, 2.70901e-001
-6.338400000000e-003, 2.70901e-001
-6.329600000000e-003, 2.70901e-001
-6.320800000000e-003, 2.70901e-001
-6.312000000000e-003, 2.70901e-001
-6.303200000000e-003, 2.70901e-001
-6.294400000000e-003, 2.70901e-001
-6.285600000000e-003, 2.70901e-001
-6.276800000000e-003, 2.70901e-001
-6.268000000000e-003, 2.70901e-001
-6.259200000000e-003, 2.70901e-001
-6.250400000000e-003, 2.70901e-001
-6.241600000000e-003, 2.70901e-001
-6.232800000000e-003, 2.70901e-001
-6.224000000000e-003, 2.70901e-001
-6.215200000000e-003, 2.70901e-001
-6.206400000000e-003, 2.70901e-001
-6.197600000000e-003, 2.70901e-001
-6.188800000000e-003, 2.70901e-001
-6.180000000000e-003, 2.70901e-001
-6.171200000000e-003, 2.70901e-001
-6.162400000000e-003, 2.70901e-001
-6.153600000000e-003, 2.70901e-001
-6.144800000000e-003, 2.70901e-001
-6.136000000000e-003, 2.70901e-001
-6.127200000000e-003, 2.70901e-001
-6.118400000000e-003, 2.70901e-001
-6.109600000000e-003, 2.70901e-001
-6.100800000000e-003, 2.70901e-001
-6.092000000000e-003, 2.70901e-001
-6.083200000000e-003, 2.70901e-001
-6.074400000000e-003, 2.70901e-001
-6.065600000000e-003, 2.70901e-001
-6.056800000000e-003, 2.70901e-001
-6.048000000000e-003, 2.70901e-001
-6.039200000000e-003, 2.70901e-001
-6.030400000000e-003, 2.70901e-001
-6.021600000000e-003, 2.70901e-001
-6.012800000000e-003, 2.70901e-001
-6.004000000000e-003, 2.70901e-001
-5.995200000000e-003, 2.70901e-001
-5.986400000000e-003, 2.70901e-001
-5.977600000000e-003, 2.70901e-001
-5.968800000000e-003, 2.70901e-001
-5.960000000000e-003, 2.70901e-001
-5.951200000000e-003, 2.70901e-001
-5.942400000000e-003, 2.70901e-001
-5.933600000000e-003, 2.70901e-001
-5.924800000000e-003, 2.70901e-001
-5.916000000000e-003, 2.70901e-001
-5.907200000000e-003, 2.70901e-001
-5.898400000000e-003, 2.70901e-001
-5.889600000000e-003, 2.70901e-001
-5.880800000000e-003, 2.70901e-001
-5.872000000000e-003, 2.70901e-001
-5.863200000000e-003, 2.70901e-001
-5.854400000000e-003, 2.70901e-001
-5.845600000000e-003, 2.70901e-001
-5.836800000000e-003, 2.70901e-001
-5.828000000000e-003, 2.70901e-001
-5.819200000000e-003, 2.70901e-001
-5.810400000000e-003, 2.70901e-001
-5.801600000000e-003, 2.70901e-001
-5.792800000000e-003, 2.70901e-001
-5.784000000000e-003, 2.70901e-001
-5.775200000000e-003, 2.70901e-001
-5.766400000000e-003, 2.70901e-001
-5.757600000000e-003, 2.70901e-001
-5.748800000000e-003, 2.70901e-001
-5.740000000000e-003, 2.70901e-001
-5.731200000000e-003, 2.70901e-001
-5.722400000000e-003, 2.70901e-001
-5.713600000000e-003, 2.70901e-001
-5.704800000000e-003, 2.70901e-001
-5.696000000000e-003, 2.70901e-001
-5.687200000000e-003, 2.70901e-001
-5.678400000000e-003, 2.70901e-001
-5.669600000000e-003, 2.70901e-001
-5.660800000000e-003, 2.70901e-001
-5.652000000000e-003, 2.70901e-001
-5.643200000000e-003, 2.70901e-001
-5.634400000000e-003, 2.70901e-001
-5.625600000000e-003, 2.70901e-001
-5.616800000000e-003, 2.70901e-001
-5.608000000000e-003, 2.70901e-001
-5.599200000000e-003, 2.70901e-001
-5.590400000000e-003, 2.70901e-001
-5.581600000000e-003, 2.70901e-001
-5.572800000000e-003, 2.70901e-001
-5.564000000000e-003, 2.70901e-001
-5.555200000000e-003, 2.70901e-001
-5.546400000000e-003, 2.70901e-001
-5.537600000000e-003, 2.70901e-001
-5.528800000000e-003, 2.70901e-001
-5.520000000000e-003, 2.70901e-001
-5.511200000000e-003, 2.70901e-001
-5.502400000000e-003, 2.70901e-001
-5.493600000000e-003, 2.70901e-001
-5.484800000000e-003, 2.70901e-001
-5.476000000000e-003, 2.70901e-001
-5.467200000000e-003, 2.70901e-001
-5.458400000000e-003, 2.70901e-001
-5.449600000000e-003, 2.70901e-001
-5.440800000000e-003, 2.70901e-001
-5.432000000000e-003, 2.70901e-001
-5.423200000000e-003, 2.70901e-001
-5.414400000000e-003, 2.70901e-001
-5.405600000000e-003, 2.70901e-001
-5.396800000000e-003, 2.70901e-001
-5.388000000000e-003, 2.70901e-001
-5.379200000000e-003, 2.70901e-001
-5.370400000000e-003, 2.70901e-001
-5.361600000000e-003, 2.70901e-001
-5.352800000000e-003, 2.70901e-001
-5.344000000000e-003, 2.70901e-001
-5.335200000000e-003, 2.70901e-001
-5.326400000000e-003, 2.70901e-001
-5.317600000000e-003, 2.70901e-001
-5.308800000000e-003, 2.70901e-001
-5.300000000000e-003, 2.70901e-001
-5.291200000000e-003, 2.70901e-001
-5.282400000000e-003, 2.70901e-001
-5.273600000000e-003, 2.70901e-001
-5.264800000000e-003, 2.70901e-001
-5.256000000000e-003, 2.70901e-001
-5.247200000000e-003, 2.70901e-001
-5.238400000000e-003, 2.70901e-001
-5.229600000000e-003, 2.70901e-001
-5.220800000000e-003, 2.70901e-001
-5.212000000000e-003, 2.70901e-001
-5.203200000000e-003, 2.70901e-001
-5.194400000000e-003, 2.70901e-001
-5.185600000000e-003, 2.70901e-001
-5.176800000000e-003, 2.70901e-001
-5.168000000000e-003, 2.70901e-001
-5.159200000000e-003, 2.70901e-001
-5.150400000000e-003, 2.70901e-001
-5.141600000000e-003, 2.70901e-001
-5.132800000000e-003, 2.70901e-001
-5.124000000000e-003, 2.70901e-001
-5.115200000000e-003, 2.70901e-001
-5.106400000000e-003, 2.70901e-001
-5.097600000000e-003, 2.70901e-001
-5.088800000000e-003, 2.70901e-001
-5.080000000000e-003, 2.70901e-001
-5.071200000000e-003, 2.70901e-001
-5.062400000000e-003, 2.70901e-001
-5.053600000000e-003, 2.70901e-001
-5.044800000000e-003, 2.70901e-001
-5.036000000000e-003, 2.70901e-001
-5.027200000000e-003,-1.81360e-001
-5.018400000000e-003,-1.79350e-001
-5.009600000000e-003,-1.75330e-001
-5.000800000000e-003,-1.73320e-001
-4.992000000000e-003,-1.71310e-001
-4.983200000000e-003,-1.67290e-001
-4.974400000000e-003,-1.67290e-001
-4.965600000000e-003,-1.63269e-001
-4.956800000000e-003,-1.63269e-001
-4.948000000000e-003,-1.61259e-001
-4.939200000000e-003,-1.59249e-001
-4.930400000000e-003,-1.59249e-001
-4.921600000000e-003,-1.57239e-001
-4.912800000000e-003,-1.55229e-001
-4.904000000000e-003,-1.55229e-001
-4.895200000000e-003,-1.51209e-001
-4.886400000000e-003,-1.51209e-001
-4.877600000000e-003,-1.51209e-001
-4.868800000000e-003,-1.49199e-001
-4.860000000000e-003,-1.49199e-001
-4.851200000000e-003,-1.49199e-001
-4.842400000000e-003,-1.49199e-001
-4.833600000000e-003,-1.47189e-001
-4.824800000000e-003,-1.45179e-001
-4.816000000000e-003,-1.45179e-001
-4.807200000000e-003,-1.47189e-001
-4.798400000000e-003,-1.43169e-001
-4.789600000000e-003,-1.45179e-001
-4.780800000000e-003,-1.43169e-001
-4.772000000000e-003,-1.43169e-001
-4.763200000000e-003,-1.41159e-001
-4.754400000000e-003,-1.41159e-001
-4.745600000000e-003,-1.39149e-001
-4.736800000000e-003,-1.39149e-001
-4.728000000000e-003,-1.37139e-001
-4.719200000000e-003,-1.41159e-001
-4.710400000000e-003,-1.35129e-001
-4.701600000000e-003,-1.39149e-001
-4.692800000000e-003,-1.37139e-001
-4.684000000000e-003,-1.35129e-001
-4.675200000000e-003,-1.35129e-001
-4.666400000000e-003,-1.35129e-001
-4.657600000000e-003,-1.35129e-001
-4.648800000000e-003,-1.33119e-001
-4.640000000000e-003,-1.33119e-001
-4.631200000000e-003,-1.31109e-001
-4.622400000000e-003,-1.31109e-001
-4.613600000000e-003,-1.31109e-001
-4.604800000000e-003,-1.31109e-001
-4.596000000000e-003,-1.29099e-001
-4.587200000000e-003,-1.31109e-001
-4.578400000000e-003,-1.29099e-001
-4.569600000000e-003,-1.29099e-001
-4.560800000000e-003,-1.27089e-001
-4.552000000000e-003,-1.27089e-001
-4.543200000000e-003,-1.27089e-001
-4.534400000000e-003,-1.25079e-001
-4.525600000000e-003,-1.25079e-001
-4.516800000000e-003,-1.27089e-001
-4.508000000000e-003,-1.25079e-001
-4.499200000000e-003,-1.25079e-001
-4.490400000000e-003,-1.25079e-001
-4.481600000000e-003,-1.23068e-001
-4.472800000000e-003,-1.23068e-001
-4.464000000000e-003,-1.23068e-001
-4.455200000000e-003,-1.23068e-001
-4.446400000000e-003,-1.23068e-001
-4.437600000000e-003,-1.21058e-001
-4.428800000000e-003,-1.19048e-001
-4.420000000000e-003,-1.19048e-001
-4.411200000000e-003,-1.19048e-001
-4.402400000000e-003,-1.19048e-001
-4.393600000000e-003,-1.17038e-001
-4.384800000000e-003,-1.19048e-001
-4.376000000000e-003,-1.17038e-001
-4.367200000000e-003,-1.15028e-001
-4.358400000000e-003,-1.17038e-001
-4.349600000000e-003,-1.15028e-001
-4.340800000000e-003,-1.15028e-001
-4.332000000000e-003,-1.13018e-001
-4.323200000000e-003,-1.15028e-001
-4.314400000000e-003,-1.13018e-001
-4.305600000000e-003,-1.13018e-001
-4.296800000000e-003,-1.13018e-001
-4.288000000000e-003,-1.13018e-001
-4.279200000000e-003,-1.13018e-001
-4.270400000000e-003,-1.11008e-001
-4.261600000000e-003,-1.11008e-001
-4.252800000000e-003,-1.11008e-001
-4.244000000000e-003,-1.08998e-001
-4.235200000000e-003,-1.11008e-001
-4.226400000000e-003,-1.08998e-001
-4.217600000000e-003,-1.08998e-001
-4.208800000000e-003,-1.06988e-001
-4.200000000000e-003,-1.06988e-001
-4.191200000000e-003,-1.06988e-001
-4.182400000000e-003,-1.06988e-001
-4.173600000000e-003,-1.06988e-001
-4.164800000000e-003,-1.04978e-001
-4.156000000000e-003,-1.04978e-001
-4.147200000000e-003,-1.04978e-001
-4.138400000000e-003,-1.04978e-001
-4.129600000000e-003,-1.04978e-001
-4.120800000000e-003,-1.02968e-001
-4.112000000000e-003,-1.06988e-001
-4.103200000000e-003,-1.02968e-001
-4.094400000000e-003,-1.04978e-001
-4.085600000000e-003,-1.02968e-001
-4.076800000000e-003,-1.02968e-001
-4.068000000000e-003,-1.00958e-001
-4.059200000000e-003,-1.02968e-001
-4.050400000000e-003,-1.00958e-001
-4.041600000000e-003,-9.89479e-002
-4.032800000000e-003,-9.89479e-002
-4.024000000000e-003,-9.89479e-002
-4.015200000000e-003,-1.00958e-001
-4.006400000000e-003,-9.89479e-002
-3.997600000000e-003,-9.89479e-002
-3.988800000000e-003,-9.69378e-002
-3.980000000000e-003,-9.49278e-002
-3.971200000000e-003,-9.69378e-002
-3.962400000000e-003,-9.69378e-002
-3.953600000000e-003,-9.49278e-002
-3.944800000000e-003,-9.49278e-002
-3.936000000000e-003,-9.49278e-002
-3.927200000000e-003,-9.69378e-002
-3.918400000000e-003,-9.49278e-002
-3.909600000000e-003,-9.29177e-002
-3.900800000000e-003,-9.29177e-002
-3.892000000000e-003,-9.49278e-002
-3.883200000000e-003,-9.29177e-002
-3.874400000000e-003,-9.29177e-002
-3.865600000000e-003,-9.09077e-002
-3.856800000000e-003,-9.29177e-002
-3.848000000000e-003,-9.09077e-002
-3.839200000000e-003,-9.09077e-002
-3.830400000000e-003,-8.88976e-002
-3.821600000000e-003,-9.09077e-002
-3.812800000000e-003,-8.88976e-002
-3.804000000000e-003,-8.88976e-002
-3.795200000000e-003,-8.88976e-002
-3.786400000000e-003,-8.88976e-002
-3.777600000000e-003,-8.88976e-002
-3.768800000000e-003,-8.68876e-002
-3.760000000000e-003,-8.88976e-002
-3.751200000000e-003,-8.68876e-002
-3.742400000000e-003,-8.68876e-002
-3.733600000000e-003,-8.68876e-002
-3.724800000000e-003,-8.48775e-002
-3.716000000000e-003,-8.48775e-002
-3.707200000000e-003,-8.68876e-002
-3.698400000000e-003,-8.48775e-002
-3.689600000000e-003,-8.48775e-002
-3.680800000000e-003,-8.48775e-002
-3.672000000000e-003,-8.68876e-002
-3.663200000000e-003,-8.48775e-002
-3.654400000000e-003,-8.28675e-002
-3.645600000000e-003,-8.28675e-002
-3.636800000000e-003,-8.28675e-002
-3.628000000000e-003,-8.28675e-002
-3.619200000000e-003,-8.28675e-002
-3.610400000000e-003,-8.28675e-002
-3.601600000000e-003,-8.08574e-002
-3.592800000000e-003,-8.08574e-002
-3.584000000000e-003,-8.28675e-002
-3.575200000000e-003,-8.08574e-002
-3.566400000000e-003,-7.88474e-002
-3.557600000000e-003,-7.88474e-002
-3.548800000000e-003,-7.88474e-002
-3.540000000000e-003,-8.08574e-002
-3.531200000000e-003,-8.08574e-002
-3.522400000000e-003,-7.68373e-002
-3.513600000000e-003,-7.68373e-002
-3.504800000000e-003,-7.88474e-002
-3.496000000000e-003,-7.68373e-002
-3.487200000000e-003,-7.88474e-002
-3.478400000000e-003,-7.68373e-002
-3.469600000000e-003,-7.68373e-002
-3.460800000000e-003,-7.68373e-002
-3.452000000000e-003,-7.68373e-002
-3.443200000000e-003,-7.48273e-002
-3.434400000000e-003,-7.48273e-002
-3.425600000000e-003,-7.48273e-002
-3.416800000000e-003,-7.68373e-002
-3.408000000000e-003,-7.48273e-002
-3.399200000000e-003,-7.48273e-002
-3.390400000000e-003,-7.48273e-002
-3.381600000000e-003,-7.28172e-002
-3.372800000000e-003,-7.28172e-002
-3.364000000000e-003,-7.28172e-002
-3.355200000000e-003,-7.28172e-002
-3.346400000000e-003,-7.28172e-002
-3.337600000000e-003,-7.08072e-002
-3.328800000000e-003,-7.28172e-002
-3.320000000000e-003,-7.08072e-002
-3.311200000000e-003,-7.28172e-002
-3.302400000000e-003,-7.08072e-002
-3.293600000000e-003,-7.28172e-002
-3.284800000000e-003,-7.08072e-002
-3.276000000000e-003,-6.87971e-002
-3.267200000000e-003,-6.87971e-002
-3.258400000000e-003,-6.87971e-002
-3.249600000000e-003,-7.08072e-002
-3.240800000000e-003,-6.67871e-002
-3.232000000000e-003,-6.87971e-002
-3.223200000000e-003,-6.87971e-002
-3.214400000000e-003,-6.67871e-002
-3.205600000000e-003,-6.67871e-002
-3.196800000000e-003,-6.67871e-002
-3.188000000000e-003,-6.67871e-002
-3.179200000000e-003,-6.67871e-002
-3.170400000000e-003,-6.67871e-002
-3.161600000000e-003,-6.67871e-002
-3.152800000000e-003,-6.47770e-002
-3.144000000000e-003,-6.47770e-002
-3.135200000000e-003,-6.47770e-002
-3.126400000000e-003,-6.67871e-002
-3.117600000000e-003,-6.47770e-002
-3.108800000000e-003,-6.67871e-002
-3.100000000000e-003,-6.47770e-002
-3.091200000000e-003,-6.47770e-002
-3.082400000000e-003,-6.47770e-002
-3.073600000000e-003,-6.27670e-002
-3.064800000000e-003,-6.47770e-002
-3.056000000000e-003,-6.27670e-002
-3.047200000000e-003,-6.27670e-002
-3.038400000000e-003,-6.47770e-002
-3.029600000000e-003,-6.27670e-002
-3.020800000000e-003,-6.27670e-002
-3.012000000000e-003,-6.27670e-002
-3.003200000000e-003,-6.07569e-002
-2.994400000000e-003,-6.07569e-002
-2.985600000000e-003,-6.07569e-002
-2.976800000000e-003,-6.27670e-002
-2.968000000000e-003,-6.27670e-002
-2.959200000000e-003,-6.07569e-002
-2.950400000000e-003,-6.07569e-002
-2.941600000000e-003,-6.07569e-002
-2.932800000000e-003,-6.27670e-002
-2.924000000000e-003,-5.87469e-002
-2.915200000000e-003,-5.87469e-002
-2.906400000000e-003,-6.07569e-002
-2.897600000000e-003,-5.87469e-002
-2.888800000000e-003,-5.87469e-002
-2.880000000000e-003,-5.67368e-002
-2.871200000000e-003,-5.87469e-002
-2.862400000000e-003,-5.87469e-002
-2.853600000000e-003,-5.87469e-002
-2.844800000000e-003,-5.67368e-002
-2.836000000000e-003,-5.67368e-002
-2.827200000000e-003,-5.47268e-002
-2.818400000000e-003,-5.67368e-002
-2.809600000000e-003,-5.67368e-002
-2.800800000000e-003,-5.47268e-002
-2.792000000000e-003,-5.47268e-002
-2.783200000000e-003,-5.67368e-002
-2.774400000000e-003,-5.47268e-002
-2.765600000000e-003,-5.67368e-002
-2.756800000000e-003,-5.47268e-002
-2.748000000000e-003,-5.47268e-002
-2.739200000000e-003,-5.47268e-002
-2.730400000000e-003,-5.47268e-002
-2.721600000000e-003,-5.47268e-002
-2.712800000000e-003,-5.47268e-002
-2.704000000000e-003,-5.27167e-002
-2.695200000000e-003,-5.47268e-002
-2.686400000000e-003,-5.27167e-002
-2.677600000000e-003,-5.47268e-002
-2.668800000000e-003,-5.27167e-002
-2.660000000000e-003,-5.27167e-002
-2.651200000000e-003,-5.27167e-002
-2.642400000000e-003,-5.07067e-002
-2.633600000000e-003,-5.27167e-002
-2.624800000000e-003,-5.27167e-002
-2.616000000000e-003,-5.07067e-002
-2.607200000000e-003,-5.07067e-002
-2.598400000000e-003,-5.07067e-002
-2.589600000000e-003,-5.27167e-002
-2.580800000000e-003,-5.07067e-002
-2.572000000000e-003,-5.07067e-002
-2.563200000000e-003,-5.07067e-002
-2.554400000000e-003,-5.27167e-002
-2.545600000000e-003,-5.07067e-002
-2.536800000000e-003,-5.07067e-002
-2.528000000000e-003,-4.86966e-002
-2.519200000000e-003,-5.27167e-002
-2.510400000000e-003,-5.07067e-002
-2.501600000000e-003,-5.07067e-002
-2.492800000000e-003,-4.86966e-002
-2.484000000000e-003,-4.86966e-002
-2.475200000000e-003,-4.66866e-002
-2.466400000000e-003,-4.86966e-002
-2.457600000000e-003,-4.86966e-002
-2.448800000000e-003,-4.86966e-002
-2.440000000000e-003,-4.66866e-002
-2.431200000000e-003,-4.86966e-002
-2.422400000000e-003,-4.66866e-002
-2.413600000000e-003,-4.66866e-002
-2.404800000000e-003,-4.66866e-002
-2.396000000000e-003,-4.66866e-002
-2.387200000000e-003,-4.66866e-002
-2.378400000000e-003,-4.86966e-002
-2.369600000000e-003,-4.66866e-002
-2.360800000000e-003,-4.66866e-002
-2.352000000000e-003,-4.46765e-002
-2.343200000000e-003,-4.66866e-002
-2.334400000000e-003,-4.46765e-002
-2.325600000000e-003,-4.46765e-002
-2.316800000000e-003,-4.46765e-002
-2.308000000000e-003,-4.46765e-002
-2.299200000000e-003,-4.46765e-002
-2.290400000000e-003,-4.26665e-002
-2.281600000000e-003,-4.46765e-002
-2.272800000000e-003,-4.46765e-002
-2.264000000000e-003,-4.46765e-002
-2.255200000000e-003,-4.46765e-002
-2.246400000000e-003,-4.26665e-002
-2.237600000000e-003,-4.26665e-002
-2.228800000000e-003,-4.46765e-002
-2.220000000000e-003,-4.26665e-002
-2.211200000000e-003,-4.46765e-002
-2.202400000000e-003,-4.26665e-002
-2.193600000000e-003,-4.26665e-002
-2.184800000000e-003,-4.06564e-002
-2.176000000000e-003,-4.26665e-002
-2.167200000000e-003,-4.26665e-002
-2.158400000000e-003,-4.06564e-002
-2.149600000000e-003,-4.06564e-002
-2.140800000000e-003,-4.06564e-002
-2.132000000000e-003,-4.06564e-002
-2.123200000000e-003,-4.26665e-002
-2.114400000000e-003,-4.26665e-002
-2.105600000000e-003,-4.26665e-002
-2.096800000000e-003,-4.06564e-002
-2.088000000000e-003,-4.06564e-002
-2.079200000000e-003,-3.86464e-002
-2.070400000000e-003,-4.06564e-002
-2.061600000000e-003,-3.86464e-002
-2.052800000000e-003,-4.06564e-002
-2.044000000000e-003,-4.06564e-002
-2.035200000000e-003,-3.86464e-002
-2.026400000000e-003,-3.86464e-002
-2.017600000000e-003,-3.86464e-002
-2.008800000000e-003,-4.06564e-002
-2.000000000000e-003,-3.86464e-002
-1.991200000000e-003,-4.06564e-002
-1.982400000000e-003,-3.86464e-002
-1.973600000000e-003,-3.86464e-002
-1.964800000000e-003,-3.86464e-002
-1.956000000000e-003,-3.86464e-002
-1.947200000000e-003,-3.86464e-002
-1.938400000000e-003,-3.66363e-002
-1.929600000000e-003,-4.06564e-002
-1.920800000000e-003,-3.66363e-002
-1.912000000000e-003,-3.86464e-002
-1.903200000000e-003,-3.66363e-002
-1.894400000000e-003,-3.86464e-002
-1.885600000000e-003,-3.66363e-002
-1.876800000000e-003,-3.66363e-002
-1.868000000000e-003,-3.66363e-002
-1.859200000000e-003,-3.66363e-002
-1.850400000000e-003,-3.46263e-002
-1.841600000000e-003,-3.46263e-002
-1.832800000000e-003,-3.46263e-002
-1.824000000000e-003,-3.66363e-002
-1.815200000000e-003,-3.46263e-002
-1.806400000000e-003,-3.66363e-002
-1.797600000000e-003,-3.66363e-002
-1.788800000000e-003,-3.46263e-002
-1.780000000000e-003,-3.46263e-002
-1.771200000000e-003,-3.66363e-002
-1.762400000000e-003,-3.46263e-002
-1.753600000000e-003,-3.46263e-002
-1.744800000000e-003,-3.46263e-002
-1.736000000000e-003,-3.66363e-002
-1.727200000000e-003,-3.26162e-002
-1.718400000000e-003,-3.46263e-002
-1.709600000000e-003,-3.46263e-002
-1.700800000000e-003,-3.46263e-002
-1.692000000000e-003,-3.26162e-002
-1.683200000000e-003,-3.46263e-002
-1.674400000000e-003,-3.26162e-002
-1.665600000000e-003,-3.46263e-002
-1.656800000000e-003,-3.46263e-002
-1.648000000000e-003,-3.26162e-002
-1.639200000000e-003,-3.26162e-002
-1.630400000000e-003,-3.26162e-002
-1.621600000000e-003,-3.06062e-002
-1.612800000000e-003,-3.26162e-002
-1.604000000000e-003,-3.26162e-002
-1.595200000000e-003,-3.06062e-002
-1.586400000000e-003,-3.26162e-002
-1.577600000000e-003,-3.26162e-002
-1.568800000000e-003,-3.06062e-002
-1.560000000000e-003,-3.26162e-002
-1.551200000000e-003,-3.26162e-002
-1.542400000000e-003,-3.46263e-002
-1.533600000000e-003,-3.06062e-002
-1.524800000000e-003,-3.06062e-002
-1.516000000000e-003,-3.06062e-002
-1.507200000000e-003,-2.85961e-002
-1.498400000000e-003,-2.85961e-002
-1.489600000000e-003,-3.06062e-002
-1.480800000000e-003,-3.06062e-002
-1.472000000000e-003,-3.06062e-002
-1.463200000000e-003,-3.06062e-002
-1.454400000000e-003,-3.06062e-002
-1.445600000000e-003,-3.06062e-002
-1.436800000000e-003,-3.06062e-002
-1.428000000000e-003,-3.06062e-002
-1.419200000000e-003,-3.06062e-002
-1.410400000000e-003,-3.06062e-002
-1.401600000000e-003,-2.85961e-002
-1.392800000000e-003,-2.85961e-002
-1.384000000000e-003,-2.85961e-002
-1.375200000000e-003,-2.85961e-002
-1.366400000000e-003,-3.06062e-002
-1.357600000000e-003,-2.85961e-002
-1.348800000000e-003,-2.85961e-002
-1.340000000000e-003,-2.85961e-002
-1.331200000000e-003,-2.85961e-002
-1.322400000000e-003,-2.85961e-002
-1.313600000000e-003,-2.85961e-002
-1.304800000000e-003,-2.85961e-002
-1.296000000000e-003,-2.85961e-002
-1.287200000000e-003,-2.85961e-002
-1.278400000000e-003,-2.85961e-002
-1.269600000000e-003,-2.85961e-002
-1.260800000000e-003,-2.85961e-002
-1.252000000000e-003,-2.65861e-002
-1.243200000000e-003,-2.85961e-002
-1.234400000000e-003,-2.65861e-002
-1.225600000000e-003,-2.85961e-002
-1.216800000000e-003,-2.65861e-002
-1.208000000000e-003,-2.65861e-002
-1.199200000000e-003,-2.65861e-002
-1.190400000000e-003,-2.85961e-002
-1.181600000000e-003,-2.65861e-002
-1.172800000000e-003,-2.65861e-002
-1.164000000000e-003,-2.65861e-002
-1.155200000000e-003,-2.65861e-002
-1.146400000000e-003,-2.65861e-002
-1.137600000000e-003,-2.65861e-002
-1.128800000000e-003,-2.85961e-002
-1.120000000000e-003,-2.85961e-002
-1.111200000000e-003,-2.65861e-002
-1.102400000000e-003,-2.65861e-002
-1.093600000000e-003,-2.45760e-002
-1.084800000000e-003,-2.65861e-002
-1.076000000000e-003,-2.65861e-002
-1.067200000000e-003,-2.45760e-002
-1.058400000000e-003,-2.65861e-002
-1.049600000000e-003,-2.45760e-002
-1.040800000000e-003,-2.65861e-002
-1.032000000000e-003,-2.45760e-002
-1.023200000000e-003,-2.45760e-002
-1.014400000000e-003,-2.45760e-002
-1.005600000000e-003,-2.65861e-002
-9.968000000000e-004,-2.65861e-002
-9.880000000000e-004,-2.45760e-002
-9.792000000000e-004,-2.65861e-002
-9.704000000000e-004,-2.45760e-002
-9.616000000000e-004,-2.45760e-002
-9.528000000000e-004,-2.45760e-002
-9.440000000000e-004,-2.45760e-002
-9.352000000000e-004,-2.45760e-002
-9.264000000000e-004,-2.45760e-002
-9.176000000000e-004,-2.25660e-002
-9.088000000000e-004,-2.25660e-002
-9.000000000000e-004,-2.05559e-002
-8.912000000000e-004,-2.45760e-002
-8.824000000000e-004,-2.25660e-002
-8.736000000000e-004,-2.45760e-002
-8.648000000000e-004,-2.45760e-002
-8.560000000000e-004,-2.25660e-002
-8.472000000000e-004,-2.25660e-002
-8.384000000000e-004,-2.25660e-002
-8.296000000000e-004,-2.45760e-002
-8.208000000000e-004,-2.45760e-002
-8.120000000000e-004,-2.25660e-002
-8.032000000000e-004,-2.05559e-002
-7.944000000000e-004,-2.25660e-002
-7.856000000000e-004,-2.25660e-002
-7.768000000000e-004,-2.25660e-002
-7.680000000000e-004,-2.05559e-002
-7.592000000000e-004,-2.25660e-002
-7.504000000000e-004,-2.25660e-002
-7.416000000000e-004,-2.05559e-002
-7.328000000000e-004,-2.05559e-002
-7.240000000000e-004,-2.05559e-002
-7.152000000000e-004,-2.05559e-002
-7.064000000000e-004,-2.25660e-002
-6.976000000000e-004,-2.25660e-002
-6.888000000000e-004,-2.05559e-002
-6.800000000000e-004,-2.05559e-002
-6.712000000000e-004,-2.05559e-002
-6.624000000000e-004,-2.05559e-002
-6.536000000000e-004,-2.25660e-002
-6.448000000000e-004,-2.05559e-002
-6.360000000000e-004,-2.25660e-002
-6.272000000000e-004,-2.05559e-002
-6.184000000000e-004,-2.05559e-002
-6.096000000000e-004,-2.25660e-002
-6.008000000000e-004,-1.85459e-002
-5.920000000000e-004,-1.85459e-002
-5.832000000000e-004,-1.85459e-002
-5.744000000000e-004,-2.05559e-002
-5.656000000000e-004,-2.25660e-002
-5.568000000000e-004,-2.05559e-002
-5.480000000000e-004,-1.85459e-002
-5.392000000000e-004,-1.85459e-002
-5.304000000000e-004,-1.85459e-002
-5.216000000000e-004,-1.85459e-002
-5.128000000000e-004,-2.05559e-002
-5.040000000000e-004,-1.85459e-002
-4.952000000000e-004,-1.85459e-002
-4.864000000000e-004,-1.85459e-002
-4.776000000000e-004,-1.85459e-002
-4.688000000000e-004,-1.85459e-002
-4.600000000000e-004,-1.85459e-002
-4.512000000000e-004,-2.05559e-002
-4.424000000000e-004,-1.85459e-002
-4.336000000000e-004,-1.65358e-002
-4.248000000000e-004,-1.85459e-002
-4.160000000000e-004,-1.65358e-002
-4.072000000000e-004,-1.85459e-002
-3.984000000000e-004,-1.85459e-002
-3.896000000000e-004,-1.85459e-002
-3.808000000000e-004,-1.85459e-002
-3.720000000000e-004,-1.65358e-002
-3.632000000000e-004,-1.85459e-002
-3.544000000000e-004,-1.65358e-002
-3.456000000000e-004,-1.85459e-002
-3.368000000000e-004,-1.85459e-002
-3.280000000000e-004,-1.65358e-002
-3.192000000000e-004,-1.85459e-002
-3.104000000000e-004,-1.85459e-002
-3.016000000000e-004,-1.85459e-002
-2.928000000000e-004,-1.65358e-002
-2.840000000000e-004,-1.65358e-002
-2.752000000000e-004,-1.65358e-002
-2.664000000000e-004,-1.85459e-002
-2.576000000000e-004,-1.65358e-002
-2.488000000000e-004,-1.65358e-002
-2.400000000000e-004,-1.65358e-002
-2.312000000000e-004,-1.65358e-002
-2.224000000000e-004,-1.65358e-002
-2.136000000000e-004,-1.85459e-002
-2.048000000000e-004,-1.65358e-002
-1.960000000000e-004,-1.85459e-002
-1.872000000000e-004,-1.65358e-002
-1.784000000000e-004,-1.45258e-002
-1.696000000000e-004,-1.65358e-002
-1.608000000000e-004,-1.65358e-002
-1.520000000000e-004,-1.65358e-002
-1.432000000000e-004,-1.65358e-002
-1.344000000000e-004,-1.85459e-002
-1.256000000000e-004,-1.65358e-002
-1.168000000000e-004,-1.65358e-002
-1.080000000000e-004,-1.45258e-002
-9.920000000000e-005,-1.85459e-002
-9.040000000000e-005,-1.45258e-002
-8.160000000000e-005,-1.45258e-002
-7.280000000000e-005,-1.65358e-002
-6.400000000000e-005,-1.45258e-002
-5.520000000000e-005,-1.65358e-002
-4.640000000000e-005,-1.65358e-002
-3.760000000000e-005,-1.45258e-002
-2.880000000000e-005,-1.65358e-002
-2.000000000000e-005,-1.45258e-002
-1.120000000000e-005,-1.65358e-002
-2.400000000000e-006,-1.25157e-002
6.400000000000e-006, 2.70901e-001
1.520000000000e-005, 2.70901e-001
2.400000000000e-005, 2.70901e-001
3.280000000000e-005, 2.70901e-001
4.160000000000e-005, 2.70901e-001
5.040000000000e-005, 2.70901e-001
5.920000000000e-005, 2.70901e-001
6.800000000000e-005, 2.70901e-001
7.680000000000e-005, 2.70901e-001
8.560000000000e-005, 2.70901e-001
9.440000000000e-005, 2.70901e-001
1.032000000000e-004, 2.70901e-001
1.120000000000e-004, 2.70901e-001
1.208000000000e-004, 2.70901e-001
1.296000000000e-004, 2.70901e-001
1.384000000000e-004, 2.70901e-001
1.472000000000e-004, 2.70901e-001
1.560000000000e-004, 2.70901e-001
1.648000000000e-004, 2.70901e-001
1.736000000000e-004, 2.70901e-001
1.824000000000e-004, 2.70901e-001
1.912000000000e-004, 2.70901e-001
2.000000000000e-004, 2.70901e-001
2.088000000000e-004, 2.70901e-001
2.176000000000e-004, 2.70901e-001
2.264000000000e-004, 2.70901e-001
2.352000000000e-004, 2.70901e-001
2.440000000000e-004, 2.70901e-001
2.528000000000e-004, 2.70901e-001
2.616000000000e-004, 2.70901e-001
2.704000000000e-004, 2.70901e-001
2.792000000000e-004, 2.70901e-001
2.880000000000e-004, 2.70901e-001
2.968000000000e-004, 2.70901e-001
3.056000000000e-004, 2.70901e-001
3.144000000000e-004, 2.70901e-001
3.232000000000e-004, 2.70901e-001
3.320000000000e-004, 2.70901e-001
3.408000000000e-004, 2.70901e-001
3.496000000000e-004, 2.70901e-001
3.584000000000e-004, 2.70901e-001
3.672000000000e-004, 2.70901e-001
3.760000000000e-004, 2.70901e-001
3.848000000000e-004, 2.70901e-001
3.936000000000e-004, 2.70901e-001
4.024000000000e-004, 2.70901e-001
4.112000000000e-004, 2.70901e-001
4.200000000000e-004, 2.70901e-001
4.288000000000e-004, 2.70901e-001
4.376000000000e-004, 2.70901e-001
4.464000000000e-004, 2.70901e-001
4.552000000000e-004, 2.70901e-001
4.640000000000e-004, 2.70901e-001
4.728000000000e-004, 2.70901e-001
4.816000000000e-004, 2.70901e-001
4.904000000000e-004, 2.70901e-001
4.992000000000e-004, 2.70901e-001
5.080000000000e-004, 2.70901e-001
5.168000000000e-004, 2.70901e-001
5.256000000000e-004, 2.70901e-001
5.344000000000e-004, 2.70901e-001
5.432000000000e-004, 2.70901e-001
5.520000000000e-004, 2.70901e-001
5.608000000000e-004, 2.70901e-001
5.696000000000e-004, 2.70901e-001
5.784000000000e-004, 2.70901e-001
5.872000000000e-004, 2.70901e-001
5.960000000000e-004, 2.70901e-001
6.048000000000e-004, 2.70901e-001
6.136000000000e-004, 2.70901e-001
6.224000000000e-004, 2.70901e-001
6.312000000000e-004, 2.70901e-001
6.400000000000e-004, 2.70901e-001
6.488000000000e-004, 2.70901e-001
6.576000000000e-004, 2.70901e-001
6.664000000000e-004, 2.70901e-001
6.752000000000e-004, 2.70901e-001
6.840000000000e-004, 2.70901e-001
6.928000000000e-004, 2.70901e-001
7.016000000000e-004, 2.70901e-001
7.104000000000e-004, 2.70901e-001
7.192000000000e-004, 2.70901e-001
7.280000000000e-004, 2.70901e-001
7.368000000000e-004, 2.70901e-001
7.456000000000e-004, 2.70901e-001
7.544000000000e-004, 2.70901e-001
7.632000000000e-004, 2.70901e-001
7.720000000000e-004, 2.70901e-001
7.808000000000e-004, 2.70901e-001
7.896000000000e-004, 2.70901e-001
7.984000000000e-004, 2.70901e-001
8.072000000000e-004, 2.70901e-001
8.160000000000e-004, 2.70901e-001
8.248000000000e-004, 2.70901e-001
8.336000000000e-004, 2.70901e-001
8.424000000000e-004, 2.70901e-001
8.512000000000e-004, 2.70901e-001
8.600000000000e-004, 2.70901e-001
8.688000000000e-004, 2.70901e-001
8.776000000000e-004, 2.70901e-001
8.864000000000e-004, 2.70901e-001
8.952000000000e-004, 2.70901e-001
9.040000000000e-004, 2.70901e-001
9.128000000000e-004, 2.70901e-001
9.216000000000e-004, 2.70901e-001
9.304000000000e-004, 2.70901e-001
9.392000000000e-004, 2.70901e-001
9.480000000000e-004, 2.70901e-001
9.568000000000e-004, 2.70901e-001
9.656000000000e-004, 2.70901e-001
9.744000000000e-004, 2.70901e-001
9.832000000000e-004, 2.70901e-001
9.920000000000e-004, 2.70901e-001
1.000800000000e-003, 2.70901e-001
1.009600000000e-003, 2.70901e-001
1.018400000000e-003, 2.70901e-001
1.027200000000e-003, 2.70901e-001
1.036000000000e-003, 2.70901e-001
1.044800000000e-003, 2.70901e-001
1.053600000000e-003, 2.70901e-001
1.062400000000e-003, 2.70901e-001
1.071200000000e-003, 2.70901e-001
1.080000000000e-003, 2.70901e-001
1.088800000000e-003, 2.70901e-001
1.097600000000e-003, 2.70901e-001
1.106400000000e-003, 2.70901e-001
1.115200000000e-003, 2.70901e-001
1.124000000000e-003, 2.70901e-001
1.132800000000e-003, 2.70901e-001
1.141600000000e-003, 2.70901e-001
1.150400000000e-003, 2.70901e-001
1.159200000000e-003, 2.70901e-001
1.168000000000e-003, 2.70901e-001
1.176800000000e-003, 2.70901e-001
1.185600000000e-003, 2.70901e-001
1.194400000000e-003, 2.70901e-001
1.203200000000e-003, 2.70901e-001
1.212000000000e-003, 2.70901e-001
1.220800000000e-003, 2.70901e-001
1.229600000000e-003, 2.70901e-001
1.238400000000e-003, 2.70901e-001
1.247200000000e-003, 2.70901e-001
1.256000000000e-003, 2.70901e-001
1.264800000000e-003, 2.70901e-001
1.273600000000e-003, 2.70901e-001
1.282400000000e-003, 2.70901e-001
1.291200000000e-003, 2.70901e-001
1.300000000000e-003, 2.70901e-001
1.308800000000e-003, 2.70901e-001
1.317600000000e-003, 2.70901e-001
1.326400000000e-003, 2.70901e-001
1.335200000000e-003, 2.70901e-001
1.344000000000e-003, 2.70901e-001
1.352800000000e-003, 2.70901e-001
1.361600000000e-003, 2.70901e-001
1.370400000000e-003, 2.70901e-001
1.379200000000e-003, 2.70901e-001
1.388000000000e-003, 2.70901e-001
1.396800000000e-003, 2.70901e-001
1.405600000000e-003, 2.70901e-001
1.414400000000e-003, 2.70901e-001
1.423200000000e-003, 2.70901e-001
1.432000000000e-003, 2.70901e-001
1.440800000000e-003, 2.70901e-001
1.449600000000e-003, 2.70901e-001
1.458400000000e-003, 2.70901e-001
1.467200000000e-003, 2.70901e-001
1.476000000000e-003, 2.70901e-001
1.484800000000e-003, 2.70901e-001
1.493600000000e-003, 2.70901e-001
1.502400000000e-003, 2.70901e-001
1.511200000000e-003, 2.70901e-001
1.520000000000e-003, 2.70901e-001
1.528800000000e-003, 2.70901e-001
1.537600000000e-003, 2.70901e-001
1.546400000000e-003, 2.70901e-001
1.555200000000e-003, 2.70901e-001
1.564000000000e-003, 2.70901e-001
1.572800000000e-003, 2.70901e-001
1.581600000000e-003, 2.70901e-001
1.590400000000e-003, 2.70901e-001
1.599200000000e-003, 2.70901e-001
1.608000000000e-003, 2.70901e-001
1.616800000000e-003, 2.70901e-001
1.625600000000e-003, 2.70901e-001
1.634400000000e-003, 2.70901e-001
1.643200000000e-003, 2.70901e-001
1.652000000000e-003, 2.70901e-001
1.660800000000e-003, 2.70901e-001
1.669600000000e-003, 2.70901e-001
1.678400000000e-003, 2.70901e-001
1.687200000000e-003, 2.70901e-001
1.696000000000e-003, 2.70901e-001
1.704800000000e-003, 2.70901e-001
1.713600000000e-003, 2.70901e-001
1.722400000000e-003, 2.70901e-001
1.731200000000e-003, 2.70901e-001
1.740000000000e-003, 2.70901e-001
1.748800000000e-003, 2.70901e-001
1.757600000000e-003, 2.70901e-001
1.766400000000e-003, 2.70901e-001
1.775200000000e-003, 2.70901e-001
1.784000000000e-003, 2.70901e-001
1.792800000000e-003, 2.70901e-001
1.801600000000e-003, 2.70901e-001
1.810400000000e-003, 2.70901e-001
1.819200000000e-003, 2.70901e-001
1.828000000000e-003, 2.70901e-001
1.836800000000e-003, 2.70901e-001
1.845600000000e-003, 2.70901e-001
1.854400000000e-003, 2.70901e-001
1.863200000000e-003, 2.70901e-001
1.872000000000e-003, 2.70901e-001
1.880800000000e-003, 2.70901e-001
1.889600000000e-003, 2.70901e-001
1.898400000000e-003, 2.70901e-001
1.907200000000e-003, 2.70901e-001
1.916000000000e-003, 2.70901e-001
1.924800000000e-003, 2.70901e-001
1.933600000000e-003, 2.70901e-001
1.942400000000e-003, 2.70901e-001
1.951200000000e-003, 2.70901e-001
1.960000000000e-003, 2.70901e-001
1.968800000000e-003, 2.70901e-001
1.977600000000e-003, 2.70901e-001
1.986400000000e-003, 2.70901e-001
1.995200000000e-003, 2.70901e-001
2.004000000000e-003, 2.70901e-001
2.012800000000e-003, 2.70901e-001
2.021600000000e-003, 2.70901e-001
2.030400000000e-003, 2.70901e-001
2.039200000000e-003, 2.70901e-001
2.048000000000e-003, 2.70901e-001
2.056800000000e-003, 2.70901e-001
2.065600000000e-003, 2.70901e-001
2.074400000000e-003, 2.70901e-001
2.083200000000e-003, 2.70901e-001
2.092000000000e-003, 2.70901e-001
2.100800000000e-003, 2.70901e-001
2.109600000000e-003, 2.70901e-001
2.118400000000e-003, 2.70901e-001
2.127200000000e-003, 2.70901e-001
2.136000000000e-003, 2.70901e-001
2.144800000000e-003, 2.70901e-001
2.153600000000e-003, 2.70901e-001
2.162400000000e-003, 2.70901e-001
2.171200000000e-003, 2.70901e-001
2.180000000000e-003, 2.70901e-001
2.188800000000e-003, 2.70901e-001
2.197600000000e-003, 2.70901e-001
2.206400000000e-003, 2.70901e-001
2.215200000000e-003, 2.70901e-001
2.224000000000e-003, 2.70901e-001
2.232800000000e-003, 2.70901e-001
2.241600000000e-003, 2.70901e-001
2.250400000000e-003, 2.70901e-001
2.259200000000e-003, 2.70901e-001
2.268000000000e-003, 2.70901e-001
2.276800000000e-003, 2.70901e-001
2.285600000000e-003, 2.70901e-001
2.294400000000e-003, 2.70901e-001
2.303200000000e-003, 2.70901e-001
2.312000000000e-003, 2.70901e-001
2.320800000000e-003, 2.70901e-001
2.329600000000e-003, 2.70901e-001
2.338400000000e-003, 2.70901e-001
2.347200000000e-003, 2.70901e-001
2.356000000000e-003, 2.70901e-001
2.364800000000e-003, 2.70901e-001
2.373600000000e-003, 2.70901e-001
2.382400000000e-003, 2.70901e-001
2.391200000000e-003, 2.70901e-001
2.400000000000e-003, 2.70901e-001
2.408800000000e-003, 2.70901e-001
2.417600000000e-003, 2.70901e-001
2.426400000000e-003, 2.70901e-001
2.435200000000e-003, 2.70901e-001
2.444000000000e-003, 2.70901e-001
2.452800000000e-003, 2.70901e-001
2.461600000000e-003, 2.70901e-001
2.470400000000e-003, 2.70901e-001
2.479200000000e-003, 2.70901e-001
2.488000000000e-003, 2.70901e-001
2.496800000000e-003, 2.70901e-001
2.505600000000e-003, 2.70901e-001
2.514400000000e-003, 2.70901e-001
2.523200000000e-003, 2.70901e-001
2.532000000000e-003, 2.70901e-001
2.540800000000e-003, 2.70901e-001
2.549600000000e-003, 2.70901e-001
2.558400000000e-003, 2.70901e-001
2.567200000000e-003, 2.70901e-001
2.576000000000e-003, 2.70901e-001
2.584800000000e-003, 2.70901e-001
2.593600000000e-003, 2.70901e-001
2.602400000000e-003, 2.70901e-001
2.611200000000e-003, 2.70901e-001
2.620000000000e-003, 2.70901e-001
2.628800000000e-003, 2.70901e-001
2.637600000000e-003, 2.70901e-001
2.646400000000e-003, 2.70901e-001
2.655200000000e-003, 2.70901e-001
2.664000000000e-003, 2.70901e-001
2.672800000000e-003, 2.70901e-001
2.681600000000e-003, 2.70901e-001
2.690400000000e-003, 2.70901e-001
2.699200000000e-003, 2.70901e-001
2.708000000000e-003, 2.70901e-001
2.716800000000e-003, 2.70901e-001
2.725600000000e-003, 2.70901e-001
2.734400000000e-003, 2.70901e-001
2.743200000000e-003, 2.70901e-001
2.752000000000e-003, 2.70901e-001
2.760800000000e-003, 2.70901e-001
2.769600000000e-003, 2.70901e-001
2.778400000000e-003, 2.70901e-001
2.787200000000e-003, 2.70901e-001
2.796000000000e-003, 2.70901e-001
2.804800000000e-003, 2.70901e-001
2.813600000000e-003, 2.70901e-001
2.822400000000e-003, 2.70901e-001
2.831200000000e-003, 2.70901e-001
2.840000000000e-003, 2.70901e-001
2.848800000000e-003, 2.70901e-001
2.857600000000e-003, 2.70901e-001
2.866400000000e-003, 2.70901e-001
2.875200000000e-003, 2.70901e-001
2.884000000000e-003, 2.70901e-001
2.892800000000e-003, 2.70901e-001
2.901600000000e-003, 2.70901e-001
2.910400000000e-003, 2.70901e-001
2.919200000000e-003, 2.70901e-001
2.928000000000e-003, 2.70901e-001
2.936800000000e-003, 2.70901e-001
2.945600000000e-003, 2.70901e-001
2.954400000000e-003, 2.70901e-001
2.963200000000e-003, 2.70901e-001
2.972000000000e-003, 2.70901e-001
2.980800000000e-003, 2.70901e-001
2.989600000000e-003, 2.70901e-001
2.998400000000e-003, 2.70901e-001
3.007200000000e-003, 2.70901e-001
3.016000000000e-003, 2.70901e-001
3.024800000000e-003, 2.70901e-001
3.033600000000e-003, 2.70901e-001
3.042400000000e-003, 2.70901e-001
3.051200000000e-003, 2.70901e-001
3.060000000000e-003, 2.70901e-001
3.068800000000e-003, 2.70901e-001
3.077600000000e-003, 2.70901e-001
3.086400000000e-003, 2.70901e-001
3.095200000000e-003, 2.70901e-001
3.104000000000e-003, 2.70901e-001
3.112800000000e-003, 2.70901e-001
3.121600000000e-003, 2.70901e-001
3.130400000000e-003, 2.70901e-001
3.139200000000e-003, 2.70901e-001
3.148000000000e-003, 2.70901e-001
3.156800000000e-003, 2.70901e-001
3.165600000000e-003, 2.70901e-001
3.174400000000e-003, 2.70901e-001
3.183200000000e-003, 2.70901e-001
3.192000000000e-003, 2.70901e-001
3.200800000000e-003, 2.70901e-001
3.209600000000e-003, 2.70901e-001
3.218400000000e-003, 2.70901e-001
3.227200000000e-003, 2.70901e-001
3.236000000000e-003, 2.70901e-001
3.244800000000e-003, 2.70901e-001
3.253600000000e-003, 2.70901e-001
3.262400000000e-003, 2.70901e-001
3.271200000000e-003, 2.70901e-001
3.280000000000e-003, 2.70901e-001
3.288800000000e-003, 2.70901e-001
3.297600000000e-003, 2.70901e-001
3.306400000000e-003, 2.70901e-001
3.315200000000e-003, 2.70901e-001
3.324000000000e-003, 2.70901e-001
3.332800000000e-003, 2.70901e-001
3.341600000000e-003, 2.70901e-001
3.350400000000e-003, 2.70901e-001
3.359200000000e-003, 2.70901e-001
3.368000000000e-003, 2.70901e-001
3.376800000000e-003, 2.70901e-001
3.385600000000e-003, 2.70901e-001
3.394400000000e-003, 2.70901e-001
3.403200000000e-003, 2.70901e-001
3.412000000000e-003, 2.70901e-001
3.420800000000e-003, 2.70901e-001
3.429600000000e-003, 2.70901e-001
3.438400000000e-003, 2.70901e-001
3.447200000000e-003, 2.70901e-001
3.456000000000e-003, 2.70901e-001
3.464800000000e-003, 2.70901e-001
3.473600000000e-003, 2.70901e-001
3.482400000000e-003, 2.70901e-001
3.491200000000e-003, 2.70901e-001
3.500000000000e-003, 2.70901e-001
3.508800000000e-003, 2.70901e-001
3.517600000000e-003, 2.70901e-001
3.526400000000e-003, 2.70901e-001
3.535200000000e-003, 2.70901e-001
3.544000000000e-003, 2.70901e-001
3.552800000000e-003, 2.70901e-001
3.561600000000e-003, 2.70901e-001
3.570400000000e-003, 2.70901e-001
3.579200000000e-003, 2.70901e-001
3.588000000000e-003, 2.70901e-001
3.596800000000e-003, 2.70901e-001
3.605600000000e-003, 2.70901e-001
3.614400000000e-003, 2.70901e-001
3.623200000000e-003, 2.70901e-001
3.632000000000e-003, 2.70901e-001
3.640800000000e-003, 2.70901e-001
3.649600000000e-003, 2.70901e-001
3.658400000000e-003, 2.70901e-001
3.667200000000e-003, 2.70901e-001
3.676000000000e-003, 2.70901e-001
3.684800000000e-003, 2.70901e-001
3.693600000000e-003, 2.70901e-001
3.702400000000e-003, 2.70901e-001
3.711200000000e-003, 2.70901e-001
3.720000000000e-003, 2.70901e-001
3.728800000000e-003, 2.70901e-001
3.737600000000e-003, 2.70901e-001
3.746400000000e-003, 2.70901e-001
3.755200000000e-003, 2.70901e-001
3.764000000000e-003, 2.70901e-001
3.772800000000e-003, 2.70901e-001
3.781600000000e-003, 2.70901e-001
3.790400000000e-003, 2.70901e-001
3.799200000000e-003, 2.70901e-001
3.808000000000e-003, 2.70901e-001
3.816800000000e-003, 2.70901e-001
3.825600000000e-003, 2.70901e-001
3.834400000000e-003, 2.70901e-001
3.843200000000e-003, 2.70901e-001
3.852000000000e-003, 2.70901e-001
3.860800000000e-003, 2.70901e-001
3.869600000000e-003, 2.70901e-001
3.878400000000e-003, 2.70901e-001
3.887200000000e-003, 2.70901e-001
3.896000000000e-003, 2.70901e-001
3.904800000000e-003, 2.70901e-001
3.913600000000e-003, 2.70901e-001
3.922400000000e-003, 2.70901e-001
3.931200000000e-003, 2.70901e-001
3.940000000000e-003, 2.70901e-001
3.948800000000e-003, 2.70901e-001
3.957600000000e-003, 2.70901e-001
3.966400000000e-003, 2.70901e-001
3.975200000000e-003, 2.70901e-001
3.984000000000e-003, 2.70901e-001
3.992800000000e-003, 2.70901e-001
4.001600000000e-003, 2.70901e-001
4.010400000000e-003, 2.70901e-001
4.019200000000e-003, 2.70901e-001
4.028000000000e-003, 2.70901e-001
4.036800000000e-003, 2.70901e-001
4.045600000000e-003, 2.70901e-001
4.054400000000e-003, 2.70901e-001
4.063200000000e-003, 2.70901e-001
4.072000000000e-003, 2.70901e-001
4.080800000000e-003, 2.70901e-001
4.089600000000e-003, 2.70901e-001
4.098400000000e-003, 2.70901e-001
4.107200000000e-003, 2.70901e-001
4.116000000000e-003, 2.70901e-001
4.124800000000e-003, 2.70901e-001
4.133600000000e-003, 2.70901e-001
4.142400000000e-003, 2.70901e-001
4.151200000000e-003, 2.70901e-001
4.160000000000e-003, 2.70901e-001
4.168800000000e-003, 2.70901e-001
4.177600000000e-003, 2.70901e-001
4.186400000000e-003, 2.70901e-001
4.195200000000e-003, 2.70901e-001
4.204000000000e-003, 2.70901e-001
4.212800000000e-003, 2.70901e-001
4.221600000000e-003, 2.70901e-001
4.230400000000e-003, 2.70901e-001
4.239200000000e-003, 2.70901e-001
4.248000000000e-003, 2.70901e-001
4.256800000000e-003, 2.70901e-001
4.265600000000e-003, 2.70901e-001
4.274400000000e-003, 2.70901e-001
4.283200000000e-003, 2.70901e-001
4.292000000000e-003, 2.70901e-001
4.300800000000e-003, 2.70901e-001
4.309600000000e-003, 2.70901e-001
4.318400000000e-003, 2.70901e-001
4.327200000000e-003, 2.70901e-001
4.336000000000e-003, 2.70901e-001
4.344800000000e-003, 2.70901e-001
4.353600000000e-003, 2.70901e-001
4.362400000000e-003, 2.70901e-001
4.371200000000e-003, 2.70901e-001
4.380000000000e-003, 2.70901e-001
4.388800000000e-003, 2.70901e-001
4.397600000000e-003, 2.70901e-001
4.406400000000e-003, 2.70901e-001
4.415200000000e-003, 2.70901e-001
4.424000000000e-003, 2.70901e-001
4.432800000000e-003, 2.70901e-001
4.441600000000e-003, 2.70901e-001
4.450400000000e-003, 2.70901e-001
4.459200000000e-003, 2.70901e-001
4.468000000000e-003, 2.70901e-001
4.476800000000e-003, 2.70901e-001
4.485600000000e-003, 2.70901e-001
4.494400000000e-003, 2.70901e-001
4.503200000000e-003, 2.70901e-001
4.512000000000e-003, 2.70901e-001
4.520800000000e-003, 2.70901e-001
4.529600000000e-003, 2.70901e-001
4.538400000000e-003, 2.70901e-001
4.547200000000e-003, 2.70901e-001
4.556000000000e-003, 2.70901e-001
4.564800000000e-003, 2.70901e-001
4.573600000000e-003, 2.70901e-001
4.582400000000e-003, 2.70901e-001
4.591200000000e-003, 2.70901e-001
4.600000000000e-003, 2.70901e-001
4.608800000000e-003, 2.70901e-001
4.617600000000e-003, 2.70901e-001
4.626400000000e-003, 2.70901e-001
4.635200000000e-003, 2.70901e-001
4.644000000000e-003, 2.70901e-001
4.652800000000e-003, 2.70901e-001
4.661600000000e-003, 2.70901e-001
4.670400000000e-003, 2.70901e-001
4.679200000000e-003, 2.70901e-001
4.688000000000e-003, 2.70901e-001
4.696800000000e-003, 2.70901e-001
4.705600000000e-003, 2.70901e-001
4.714400000000e-003, 2.70901e-001
4.723200000000e-003, 2.70901e-001
4.732000000000e-003, 2.70901e-001
4.740800000000e-003, 2.70901e-001
4.749600000000e-003, 2.70901e-001
4.758400000000e-003, 2.70901e-001
4.767200000000e-003, 2.70901e-001
4.776000000000e-003, 2.70901e-001
4.784800000000e-003, 2.70901e-001
4.793600000000e-003, 2.70901e-001
4.802400000000e-003, 2.70901e-001
4.811200000000e-003, 2.70901e-001
4.820000000000e-003, 2.70901e-001
4.828800000000e-003, 2.70901e-001
4.837600000000e-003, 2.70901e-001
4.846400000000e-003, 2.70901e-001
4.855200000000e-003, 2.70901e-001
4.864000000000e-003, 2.70901e-001
4.872800000000e-003, 2.70901e-001
4.881600000000e-003, 2.70901e-001
4.890400000000e-003, 2.70901e-001
4.899200000000e-003, 2.70901e-001
4.908000000000e-003, 2.70901e-001
4.916800000000e-003, 2.70901e-001
4.925600000000e-003, 2.70901e-001
4.934400000000e-003, 2.70901e-001
4.943200000000e-003, 2.70901e-001
4.952000000000e-003, 2.70901e-001
4.960800000000e-003, 2.70901e-001
4.969600000000e-003, 2.70901e-001
4.978400000000e-003, 2.70901e-001
4.987200000000e-003, 2.70901e-001
4.996000000000e-003, 2.70901e-001
5.004800000000e-003, 2.70901e-001
5.013600000000e-003, 2.70901e-001
5.022400000000e-003,-1.83370e-001
5.031200000000e-003,-1.81360e-001
5.040000000000e-003,-1.75330e-001
5.048800000000e-003,-1.73320e-001
5.057600000000e-003,-1.71310e-001
5.066400000000e-003,-1.69300e-001
5.075200000000e-003,-1.67290e-001
5.084000000000e-003,-1.67290e-001
5.092800000000e-003,-1.63269e-001
5.101600000000e-003,-1.61259e-001
5.110400000000e-003,-1.59249e-001
5.119200000000e-003,-1.59249e-001
5.128000000000e-003,-1.57239e-001
5.136800000000e-003,-1.57239e-001
5.145600000000e-003,-1.53219e-001
5.154400000000e-003,-1.53219e-001
5.163200000000e-003,-1.51209e-001
5.172000000000e-003,-1.51209e-001
5.180800000000e-003,-1.49199e-001
5.189600000000e-003,-1.51209e-001
5.198400000000e-003,-1.49199e-001
5.207200000000e-003,-1.49199e-001
5.216000000000e-003,-1.47189e-001
5.224800000000e-003,-1.47189e-001
5.233600000000e-003,-1.47189e-001
5.242400000000e-003,-1.45179e-001
5.251200000000e-003,-1.43169e-001
5.260000000000e-003,-1.43169e-001
5.268800000000e-003,-1.41159e-001
5.277600000000e-003,-1.41159e-001
5.286400000000e-003,-1.41159e-001
5.295200000000e-003,-1.41159e-001
5.304000000000e-003,-1.43169e-001
5.312800000000e-003,-1.41159e-001
5.321600000000e-003,-1.41159e-001
5.330400000000e-003,-1.37139e-001
5.339200000000e-003,-1.37139e-001
5.348000000000e-003,-1.37139e-001
5.356800000000e-003,-1.35129e-001
5.365600000000e-003,-1.37139e-001
5.374400000000e-003,-1.35129e-001
5.383200000000e-003,-1.35129e-001
5.392000000000e-003,-1.33119e-001
5.400800000000e-003,-1.33119e-001
5.409600000000e-003,-1.33119e-001
5.418400000000e-003,-1.31109e-001
5.427200000000e-003,-1.31109e-001
5.436000000000e-003,-1.33119e-001
5.444800000000e-003,-1.29099e-001
5.453600000000e-003,-1.29099e-001
5.462400000000e-003,-1.29099e-001
5.471200000000e-003,-1.29099e-001
5.480000000000e-003,-1.29099e-001
5.488800000000e-003,-1.29099e-001
5.497600000000e-003,-1.25079e-001
5.506400000000e-003,-1.27089e-001
5.515200000000e-003,-1.25079e-001
5.524000000000e-003,-1.25079e-001
5.532800000000e-003,-1.27089e-001
5.541600000000e-003,-1.25079e-001
5.550400000000e-003,-1.25079e-001
5.559200000000e-003,-1.23068e-001
5.568000000000e-003,-1.23068e-001
5.576800000000e-003,-1.23068e-001
5.585600000000e-003,-1.23068e-001
5.594400000000e-003,-1.23068e-001
5.603200000000e-003,-1.23068e-001
5.612000000000e-003,-1.21058e-001
5.620800000000e-003,-1.19048e-001
5.629600000000e-003,-1.21058e-001
5.638400000000e-003,-1.19048e-001
5.647200000000e-003,-1.21058e-001
5.656000000000e-003,-1.19048e-001
5.664800000000e-003,-1.17038e-001
5.673600000000e-003,-1.17038e-001
5.682400000000e-003,-1.17038e-001
5.691200000000e-003,-1.15028e-001
5.700000000000e-003,-1.15028e-001
5.708800000000e-003,-1.17038e-001
5.717600000000e-003,-1.15028e-001
5.726400000000e-003,-1.13018e-001
5.735200000000e-003,-1.13018e-001
5.744000000000e-003,-1.15028e-001
5.752800000000e-003,-1.13018e-001
5.761600000000e-003,-1.11008e-001
5.770400000000e-003,-1.13018e-001
5.779200000000e-003,-1.11008e-001
5.788000000000e-003,-1.08998e-001
5.796800000000e-003,-1.11008e-001
5.805600000000e-003,-1.08998e-001
5.814400000000e-003,-1.08998e-001
5.823200000000e-003,-1.11008e-001
5.832000000000e-003,-1.08998e-001
5.840800000000e-003,-1.08998e-001
5.849600000000e-003,-1.08998e-001
5.858400000000e-003,-1.06988e-001
5.867200000000e-003,-1.06988e-001
5.876000000000e-003,-1.06988e-001
5.884800000000e-003,-1.06988e-001
5.893600000000e-003,-1.06988e-001
5.902400000000e-003,-1.06988e-001
5.911200000000e-003,-1.04978e-001
5.920000000000e-003,-1.04978e-001
5.928800000000e-003,-1.04978e-001
5.937600000000e-003,-1.04978e-001
5.946400000000e-003,-1.02968e-001
5.955200000000e-003,-1.02968e-001
5.964000000000e-003,-1.02968e-001
5.972800000000e-003,-1.00958e-001
5.981600000000e-003,-1.02968e-001
5.990400000000e-003,-1.02968e-001
5.999200000000e-003,-1.00958e-001
6.008000000000e-003,-1.00958e-001
6.016800000000e-003,-9.89479e-002
6.025600000000e-003,-9.89479e-002
6.034400000000e-003,-1.00958e-001
6.043200000000e-003,-9.89479e-002
6.052000000000e-003,-9.89479e-002
6.060800000000e-003,-9.89479e-002
6.069600000000e-003,-9.89479e-002
6.078400000000e-003,-9.69378e-002
6.087200000000e-003,-9.69378e-002
6.096000000000e-003,-9.49278e-002
6.104800000000e-003,-9.49278e-002
6.113600000000e-003,-9.49278e-002
6.122400000000e-003,-9.49278e-002
6.131200000000e-003,-9.69378e-002
6.140000000000e-003,-9.49278e-002
6.148800000000e-003,-9.49278e-002
6.157600000000e-003,-9.29177e-002
6.166400000000e-003,-9.49278e-002
6.175200000000e-003,-9.29177e-002
6.184000000000e-003,-9.09077e-002
6.192800000000e-003,-9.09077e-002
6.201600000000e-003,-9.29177e-002
6.210400000000e-003,-9.09077e-002
6.219200000000e-003,-9.09077e-002
6.228000000000e-003,-9.09077e-002
6.236800000000e-003,-9.09077e-002
6.245600000000e-003,-9.09077e-002
6.254400000000e-003,-8.88976e-002
6.263200000000e-003,-8.68876e-002
6.272000000000e-003,-8.88976e-002
6.280800000000e-003,-8.68876e-002
6.289600000000e-003,-8.88976e-002
6.298400000000e-003,-8.88976e-002
6.307200000000e-003,-8.68876e-002
6.316000000000e-003,-8.68876e-002
6.324800000000e-003,-8.68876e-002
6.333600000000e-003,-8.68876e-002
6.342400000000e-003,-8.68876e-002
6.351200000000e-003,-8.48775e-002
6.360000000000e-003,-8.48775e-002
6.368800000000e-003,-8.48775e-002
6.377600000000e-003,-8.48775e-002
6.386400000000e-003,-8.48775e-002
6.395200000000e-003,-8.48775e-002
6.404000000000e-003,-8.28675e-002
6.412800000000e-003,-8.28675e-002
6.421600000000e-003,-8.08574e-002
6.430400000000e-003,-8.28675e-002
6.439200000000e-003,-8.08574e-002
6.448000000000e-003,-8.08574e-002
6.456800000000e-003,-8.08574e-002
6.465600000000e-003,-8.28675e-002
6.474400000000e-003,-8.08574e-002
6.483200000000e-003,-8.08574e-002
6.492000000000e-003,-8.08574e-002
6.500800000000e-003,-8.08574e-002
6.509600000000e-003,-8.08574e-002
6.518400000000e-003,-7.88474e-002
6.527200000000e-003,-7.68373e-002
6.536000000000e-003,-8.08574e-002
6.544800000000e-003,-7.68373e-002
6.553600000000e-003,-7.68373e-002
6.562400000000e-003,-7.68373e-002
6.571200000000e-003,-7.68373e-002
6.580000000000e-003,-7.88474e-002
6.588800000000e-003,-7.68373e-002
6.597600000000e-003,-7.48273e-002
6.606400000000e-003,-7.48273e-002
6.615200000000e-003,-7.48273e-002
6.624000000000e-003,-7.48273e-002
6.632800000000e-003,-7.48273e-002
6.641600000000e-003,-7.68373e-002
6.650400000000e-003,-7.28172e-002
6.659200000000e-003,-7.48273e-002
6.668000000000e-003,-7.48273e-002
6.676800000000e-003,-7.28172e-002
6.685600000000e-003,-7.28172e-002
6.694400000000e-003,-7.48273e-002
6.703200000000e-003,-7.28172e-002
6.712000000000e-003,-7.28172e-002
6.720800000000e-003,-7.28172e-002
6.729600000000e-003,-7.28172e-002
6.738400000000e-003,-7.28172e-002
6.747200000000e-003,-7.28172e-002
6.756000000000e-003,-7.08072e-002
6.764800000000e-003,-7.08072e-002
6.773600000000e-003,-6.67871e-002
6.782400000000e-003,-7.08072e-002
6.791200000000e-003,-6.87971e-002
6.800000000000e-003,-6.87971e-002
6.808800000000e-003,-7.08072e-002
6.817600000000e-003,-6.87971e-002
6.826400000000e-003,-6.87971e-002
6.835200000000e-003,-6.87971e-002
6.844000000000e-003,-6.67871e-002
6.852800000000e-003,-6.87971e-002
6.861600000000e-003,-6.67871e-002
6.870400000000e-003,-6.67871e-002
6.879200000000e-003,-6.67871e-002
6.888000000000e-003,-6.47770e-002
6.896800000000e-003,-6.67871e-002
6.905600000000e-003,-6.47770e-002
6.914400000000e-003,-6.47770e-002
6.923200000000e-003,-6.67871e-002
6.932000000000e-003,-6.47770e-002
6.940800000000e-003,-6.47770e-002
6.949600000000e-003,-6.47770e-002
6.958400000000e-003,-6.47770e-002
6.967200000000e-003,-6.47770e-002
6.976000000000e-003,-6.47770e-002
6.984800000000e-003,-6.47770e-002
6.993600000000e-003,-6.47770e-002
7.002400000000e-003,-6.27670e-002
7.011200000000e-003,-6.27670e-002
7.020000000000e-003,-6.27670e-002
7.028800000000e-003,-6.07569e-002
7.037600000000e-003,-6.07569e-002
7.046400000000e-003,-6.27670e-002
7.055200000000e-003,-6.27670e-002
7.064000000000e-003,-6.07569e-002
7.072800000000e-003,-6.07569e-002
7.081600000000e-003,-6.07569e-002
7.090400000000e-003,-6.07569e-002
7.099200000000e-003,-6.07569e-002
7.108000000000e-003,-6.07569e-002
7.116800000000e-003,-6.07569e-002
7.125600000000e-003,-5.87469e-002
7.134400000000e-003,-5.87469e-002
7.143200000000e-003,-6.07569e-002
7.152000000000e-003,-5.87469e-002
7.160800000000e-003,-5.87469e-002
7.169600000000e-003,-5.87469e-002
7.178400000000e-003,-6.07569e-002
7.187200000000e-003,-5.87469e-002
7.196000000000e-003,-5.87469e-002
7.204800000000e-003,-5.87469e-002
7.213600000000e-003,-5.67368e-002
7.222400000000e-003,-5.67368e-002
7.231200000000e-003,-5.87469e-002
7.240000000000e-003,-5.67368e-002
7.248800000000e-003,-5.67368e-002
7.257600000000e-003,-5.67368e-002
7.266400000000e-003,-5.67368e-002
7.275200000000e-003,-5.67368e-002
7.284000000000e-003,-5.47268e-002
7.292800000000e-003,-5.67368e-002
7.301600000000e-003,-5.47268e-002
7.310400000000e-003,-5.27167e-002
7.319200000000e-003,-5.47268e-002
7.328000000000e-003,-5.47268e-002
7.336800000000e-003,-5.27167e-002
7.345600000000e-003,-5.47268e-002
7.354400000000e-003,-5.27167e-002
7.363200000000e-003,-5.47268e-002
7.372000000000e-003,-5.27167e-002
7.380800000000e-003,-5.27167e-002
7.389600000000e-003,-5.27167e-002
7.398400000000e-003,-5.07067e-002
7.407200000000e-003,-5.47268e-002
7.416000000000e-003,-5.27167e-002
7.424800000000e-003,-5.27167e-002
7.433600000000e-003,-5.27167e-002
7.442400000000e-003,-5.27167e-002
7.451200000000e-003,-5.07067e-002
7.460000000000e-003,-5.07067e-002
7.468800000000e-003,-5.07067e-002
7.477600000000e-003,-5.07067e-002
7.486400000000e-003,-5.07067e-002
7.495200000000e-003,-5.07067e-002
7.504000000000e-003,-5.07067e-002
7.512800000000e-003,-5.07067e-002
7.521600000000e-003,-4.86966e-002
7.530400000000e-003,-5.07067e-002
7.539200000000e-003,-4.86966e-002
7.548000000000e-003,-4.86966e-002
7.556800000000e-003,-4.86966e-002
7.565600000000e-003,-4.66866e-002
7.574400000000e-003,-4.66866e-002
7.583200000000e-003,-4.86966e-002
7.592000000000e-003,-4.86966e-002
7.600800000000e-003,-5.07067e-002
7.609600000000e-003,-4.66866e-002
7.618400000000e-003,-4.86966e-002
7.627200000000e-003,-4.66866e-002
7.636000000000e-003,-4.86966e-002
7.644800000000e-003,-4.66866e-002
7.653600000000e-003,-4.66866e-002
7.662400000000e-003,-4.46765e-002
7.671200000000e-003,-4.66866e-002
7.680000000000e-003,-4.66866e-002
7.688800000000e-003,-4.46765e-002
7.697600000000e-003,-4.46765e-002
7.706400000000e-003,-4.46765e-002
7.715200000000e-003,-4.66866e-002
7.724000000000e-003,-4.46765e-002
7.732800000000e-003,-4.46765e-002
7.741600000000e-003,-4.26665e-002
7.750400000000e-003,-4.46765e-002
7.759200000000e-003,-4.46765e-002
7.768000000000e-003,-4.46765e-002
7.776800000000e-003,-4.46765e-002
7.785600000000e-003,-4.46765e-002
7.794400000000e-003,-4.26665e-002
7.803200000000e-003,-4.26665e-002
7.812000000000e-003,-4.26665e-002
7.820800000000e-003,-4.26665e-002
7.829600000000e-003,-4.26665e-002
7.838400000000e-003,-4.26665e-002
7.847200000000e-003,-4.26665e-002
7.856000000000e-003,-4.26665e-002
7.864800000000e-003,-4.26665e-002
7.873600000000e-003,-4.06564e-002
7.882400000000e-003,-4.26665e-002
7.891200000000e-003,-4.06564e-002
7.900000000000e-003,-4.26665e-002
7.908800000000e-003,-4.06564e-002
7.917600000000e-003,-4.06564e-002
7.926400000000e-003,-4.26665e-002
7.935200000000e-003,-4.06564e-002
7.944000000000e-003,-3.86464e-002
7.952800000000e-003,-3.86464e-002
7.961600000000e-003,-3.86464e-002
7.970400000000e-003,-4.06564e-002
7.979200000000e-003,-4.06564e-002
7.988000000000e-003,-3.86464e-002
7.996800000000e-003,-4.06564e-002
8.005600000000e-003,-3.86464e-002
8.014400000000e-003,-4.06564e-002
8.023200000000e-003,-3.86464e-002
8.032000000000e-003,-4.06564e-002
8.040800000000e-003,-4.06564e-002
8.049600000000e-003,-3.86464e-002
8.058400000000e-003,-3.66363e-002
8.067200000000e-003,-3.86464e-002
8.076000000000e-003,-4.06564e-002
8.084800000000e-003,-3.86464e-002
8.093600000000e-003,-3.86464e-002
8.102400000000e-003,-3.86464e-002
8.111200000000e-003,-3.66363e-002
8.120000000000e-003,-3.86464e-002
8.128800000000e-003,-3.86464e-002
8.137600000000e-003,-3.86464e-002
8.146400000000e-003,-3.66363e-002
8.155200000000e-003,-3.86464e-002
8.164000000000e-003,-3.66363e-002
8.172800000000e-003,-3.66363e-002
8.181600000000e-003,-3.86464e-002
8.190400000000e-003,-3.46263e-002
8.199200000000e-003,-3.66363e-002
8.208000000000e-003,-3.46263e-002
8.216800000000e-003,-3.66363e-002
8.225600000000e-003,-3.46263e-002
8.234400000000e-003,-3.66363e-002
8.243200000000e-003,-3.66363e-002
8.252000000000e-003,-3.66363e-002
8.260800000000e-003,-3.46263e-002
8.269600000000e-003,-3.86464e-002
8.278400000000e-003,-3.46263e-002
8.287200000000e-003,-3.46263e-002
8.296000000000e-003,-3.46263e-002
8.304800000000e-003,-3.46263e-002
8.313600000000e-003,-3.66363e-002
8.322400000000e-003,-3.46263e-002
8.331200000000e-003,-3.66363e-002
8.340000000000e-003,-3.66363e-002
8.348800000000e-003,-3.26162e-002
8.357600000000e-003,-3.26162e-002
8.366400000000e-003,-3.46263e-002
8.375200000000e-003,-3.46263e-002
8.384000000000e-003,-3.26162e-002
8.392800000000e-003,-3.26162e-002
8.401600000000e-003,-3.46263e-002
8.410400000000e-003,-3.26162e-002
8.419200000000e-003,-3.26162e-002
8.428000000000e-003,-3.26162e-002
8.436800000000e-003,-3.26162e-002
8.445600000000e-003,-3.26162e-002
8.454400000000e-003,-3.26162e-002
8.463200000000e-003,-3.26162e-002
8.472000000000e-003,-3.46263e-002
8.480800000000e-003,-3.06062e-002
8.489600000000e-003,-3.26162e-002
8.498400000000e-003,-3.26162e-002
8.507200000000e-003,-3.26162e-002
8.516000000000e-003,-3.06062e-002
8.524800000000e-003,-3.26162e-002
8.533600000000e-003,-3.26162e-002
8.542400000000e-003,-2.85961e-002
8.551200000000e-003,-3.06062e-002
8.560000000000e-003,-3.06062e-002
8.568800000000e-003,-3.06062e-002
8.577600000000e-003,-3.26162e-002
8.586400000000e-003,-3.06062e-002